{
    "KPlugin": {
        "Description": "Ruby Language Support",
        "Description[ca@valencia]": "Implementació del llenguatge Ruby",
        "Description[ca]": "Implementació del llenguatge Ruby",
        "Description[cs]": "Podpora jazyka Ruby",
        "Description[de]": "Sprachunterstützung für Ruby",
        "Description[en_GB]": "Ruby Language Support",
        "Description[es]": "Implementación del lenguaje Ruby",
        "Description[et]": "Ruby keele toetus",
        "Description[fi]": "Ruby-kielen tuki",
        "Description[fr]": "Prise en charge du langage Ruby",
        "Description[gl]": "Compatibilidade coa linguaxe Ruby",
        "Description[hi]": "रूबी भाषा समर्थन",
        "Description[hu]": "Ruby nyelvi támogatás",
        "Description[it]": "Supporto al linguaggio Ruby",
        "Description[ka]": "პროგრამირების ენა Ruby-ის მხარდაჭერა",
        "Description[ko]": "Ruby 언어 지원",
        "Description[nl]": "Ondersteuning voor de taal Ruby",
        "Description[nn]": "Støtte for språket Ruby",
        "Description[pl]": "Obsługa języka Ruby",
        "Description[pt]": "Suporte à Linguagem Ruby",
        "Description[pt_BR]": "Suporte à linguagem Ruby",
        "Description[ru]": "Поддержка языка программирования Ruby",
        "Description[sk]": "Podpora jazyka Ruby",
        "Description[sl]": "Podpora jeziku Ruby",
        "Description[sv]": "Ruby-språkstöd",
        "Description[tr]": "Ruby Dil Desteği",
        "Description[uk]": "Підтримка мови Ruby",
        "Description[x-test]": "xxRuby Language Supportxx",
        "Description[zh_CN]": "Ruby 语言支持",
        "Description[zh_TW]": "Ruby 程式語言支援",
        "Icon": "application-x-ruby",
        "Id": "KDevRubySupport",
        "Name": "Ruby Support",
        "Name[ca@valencia]": "Implementació de Ruby",
        "Name[ca]": "Implementació del Ruby",
        "Name[cs]": "Podpora Ruby",
        "Name[de]": "Unterstützung für Ruby",
        "Name[en_GB]": "Ruby Support",
        "Name[es]": "Implementación de Ruby",
        "Name[et]": "Ruby toetus",
        "Name[fi]": "Ruby-tuki",
        "Name[fr]": "Prise en charge de Ruby",
        "Name[gl]": "Compatibilidade con Ruby",
        "Name[hi]": "रूबी समर्थन",
        "Name[hu]": "Ruby támogatás",
        "Name[it]": "Supporto per Ruby",
        "Name[ka]": "Ruby-ის მხარდაჭერა",
        "Name[ko]": "Ruby 지원",
        "Name[nl]": "Ondersteuning voor Ruby",
        "Name[nn]": "Ruby-støtte",
        "Name[pl]": "Obsługa Ruby",
        "Name[pt]": "Suporte para Ruby",
        "Name[pt_BR]": "Suporte à Ruby",
        "Name[ru]": "Поддержка Ruby",
        "Name[sk]": "Podpora Ruby",
        "Name[sl]": "Podpora Ruby",
        "Name[sv]": "Stöd för Ruby",
        "Name[tr]": "Ruby Desteği",
        "Name[uk]": "Підтримка Ruby",
        "Name[x-test]": "xxRuby Supportxx",
        "Name[zh_CN]": "Ruby 支持",
        "Name[zh_TW]": "Ruby 支援",
        "ServiceTypes": [
            "KDevelop/Plugin"
        ]
    },
    "X-KDevelop-Interfaces": [
        "ILanguageSupport"
    ],
    "X-KDevelop-Language": "Ruby",
    "X-KDevelop-LoadMode": "AlwaysOn",
    "X-KDevelop-Mode": "NoGUI",
    "X-KDevelop-SupportedMimeTypes": [
        "application/x-ruby"
    ]
}
